<?xml version="1.0"?>
<robot name="dr_gazebo_imu" xmlns:xacro="http://www.ros.org/wiki/xacro">
	<xacro:macro name="dr_gazebo_imu" params="link_name namespace">
		<gazebo reference="${link_name}">
            <sensor name="${link_name}_sensor" type="${link_name}">
                <always_on>true</always_on>
                <update_rate>100</update_rate>
                <plugin name="${link_name}_plugin" filename="libgazebo_ros_imu_sensor.so">
                    <robotNamespace>${namespace}</robotNamespace>
                    <topicName>imu</topicName>
                    <bodyName>imu</bodyName>
                    <updateRateHZ>50.0</updateRateHZ>
                    <gaussianNoise>0.05</gaussianNoise>
                    <xyzOffset>0 0 0</xyzOffset>
                    <rpyOffset>0 0 0</rpyOffset>
                    <frameName>imu_1</frameName>
                </plugin>
            </sensor>
        </gazebo>
	</xacro:macro>
</robot>