<?xml version="1.0"?>
<robot xmlns:xacro="http://www.ros.org/wiki/xacro"  name="supervisor_topcamera">
    <xacro:include filename="$(find ds_common)/urdf/macros.xacro"/>

    <xacro:macro name="topcamera" params="base_link cfg">
        <xacro:uniformBoxD name="${base_link}" x="0.05" y="0.03" z="0.03" p="300"/>
        <gazebo reference="${base_link}"><material>Gazebo/Grey</material></gazebo>
    </xacro:macro>
</robot> 
 