<?xml version="1.0"?>
<robot name="supervisor" xmlns:xacro="http://www.ros.org/wiki/xacro">
	<xacro:arg name="team" default="blue"/>

	<xacro:arg name="model_topcamera" default="1"/>

	<xacro:arg name="plugin_gazebo_topcamera_1" default="1"/>


	<xacro:property name="model" value="${dict(topcamera=$(arg model_topcamera))}"/>
	<xacro:property name="plugins" value="${dict(gazebo_topcamera_1=$(arg plugin_gazebo_topcamera_1))}"/>

	<xacro:include filename="$(find supervisor_description)/urdf/supervisor.xacro"/>
	<xacro:supervisor team="$(arg team)" model="${model}" plugins="${plugins}"/>
</robot>
